<?xml version="1.0" standalone="no"?>
<!DOCTYPE svg PUBLIC "-//W3C//DTD SVG 1.1//EN" "http://www.w3.org/Graphics/SVG/1.1/DTD/svg11.dtd">
<svg xmlns="http://www.w3.org/2000/svg">
<metadata>Copyright (C) 2020 by original authors @ fontello.com</metadata>
<defs>
<font id="fontello" horiz-adv-x="1000" >
<font-face font-family="fontello" font-weight="400" font-stretch="normal" units-per-em="1000" ascent="850" descent="-150" />
<missing-glyph horiz-adv-x="1000" />
<glyph glyph-name="accessibility" unicode="&#xe801;" d="M654-108c-25 0-50 16-58 41l-96 225-96-225c-8-25-33-41-58-41-8 0-17 0-25 4-33 12-50 54-33 83l120 292v125l-208 29c-17 8-33 17-42 33-12 13-16 30-12 46 4 34 33 59 62 59 5 0 9 0 9 0l250-38c0 0 4 4 4 4l8 4h42l4-4c0 0 4 0 8 0l250 34c5 0 9 0 9 0 33 0 58-25 62-55 4-16 0-33-12-50-13-12-25-25-42-25l-208-29v-125l121-292c8-16 8-33 0-50-9-16-21-29-34-37-8-8-16-8-25-8z m-154 712c-54 0-100 46-100 100s46 104 100 104 100-45 100-100-46-104-100-104z" horiz-adv-x="1000" />

<glyph glyph-name="accessibility-off" unicode="&#xe802;" d="M500 842c-271 0-492-221-492-492s221-492 492-492 492 221 492 492-221 492-492 492z m0-930c-242 0-437 196-437 438s195 438 437 438 438-196 438-438-196-438-438-438z m104 126c-16 0-33 12-41 29l-63 154-62-154c-9-17-25-29-42-29-4 0-13 0-17 4-21 8-33 37-25 58l84 200v88l-142 20c-13 0-21 9-29 17-9 8-13 21-9 33 5 21 21 38 46 38 4 0 4 0 9 0l170-25c0 0 5 4 5 4l0 0h29l4-4c0 0 4 0 4 0l171 25c4 0 4 0 8 0 21 0 42-17 46-38 0-12 0-25-8-33-9-8-17-17-29-17l-142-20v-88l83-200c4-12 4-25 0-33-4-13-12-21-25-25-12-4-16-4-25-4z m-104 487c-37 0-71 29-71 71s29 71 71 71c38 0 71-29 71-71s-33-71-71-71z" horiz-adv-x="1000" />

<glyph glyph-name="accessibility-on" unicode="&#xe803;" d="M500 842c-271 0-492-221-492-492s221-492 492-492 492 221 492 492-221 492-492 492z m0-930c-242 0-437 196-437 438s195 438 437 438 438-196 438-438-196-438-438-438z m0 842c-221 0-404-179-404-404s179-404 404-404 404 179 404 404-183 404-404 404z m0-91c38 0 71-30 71-71 0-38-29-71-71-71s-71 37-71 75c0 37 34 67 71 67z m233-238c-8-8-16-17-29-17l-141-20v-88l83-200c4-12 4-25 0-33-4-13-13-21-25-25-4-4-13-4-17-4-16 0-33 12-41 29l-63 154-62-154c-9-17-25-29-42-29-4 0-13 0-17 4-21 8-33 37-25 58l84 200v88l-142 20c-13 0-21 9-29 17-9 8-13 21-9 33 5 21 21 38 46 38 4 0 4 0 9 0l170-25c0 0 5 4 5 4l0 0h29l4-4c0 0 4 0 4 0l171 25c4 0 4 0 8 0 21 0 42-17 46-38-4-12-8-25-17-33z" horiz-adv-x="1000" />

<glyph glyph-name="account_circle-off" unicode="&#xe807;" d="M500 671c75 0 138-63 138-138s-63-137-138-137-137 62-137 137 62 138 137 138z m0-650c-112 0-217 58-275 146 0 91 183 141 275 141 92 0 271-50 275-141-58-88-162-146-275-146z m0 821c-271 0-492-221-492-492s221-492 492-492 492 221 492 492-221 492-492 492z m0-930c-242 0-437 196-437 438s195 438 437 438 438-196 438-438-196-438-438-438z" horiz-adv-x="1000" />

<glyph glyph-name="account_circle-on" unicode="&#xe80a;" d="M500 842c-271 0-492-221-492-492s221-492 492-492 492 221 492 492-221 492-492 492z m0-930c-242 0-437 196-437 438s195 438 437 438 438-196 438-438-196-438-438-438z m0 842c-221 0-404-179-404-404s179-404 404-404 404 179 404 404-183 404-404 404z m0-83c75 0 138-63 138-138 0-75-63-137-138-137s-137 62-137 137c0 75 62 138 137 138z m0-650c-112 0-217 58-275 146 0 91 183 141 275 141 92 0 271-50 275-141-58-88-162-146-275-146z" horiz-adv-x="1000" />

<glyph glyph-name="asterisk" unicode="&#xe83f;" d="M935 97c-16-24-40-40-69-40-12 0-28 4-40 12l-243 141v-279c0-45-36-81-81-81s-81 36-81 81v279l-243-141c-12-8-28-12-40-12-29 0-57 16-69 40-24 40-8 89 28 109l243 142-243 142c-40 24-52 73-28 109s73 53 109 28l243-141v283c0 45 37 81 81 81s81-36 81-81v-279l243 141c40 25 89 9 109-28 25-40 8-89-28-109l-243-142 243-142c36-24 49-73 28-113z" horiz-adv-x="1000" />

<glyph glyph-name="view_microdata" unicode="&#xe852;" d="M188 546v-584h791v584h-791z m83-83h625v-167h-625v167z m0-417v167h167v-167h-167z m250 0v167h375v-167h-375z m-371 108h-129v584h792v-142h-84v58h-625v-166h46v-84h-46v-166h46v-84z" horiz-adv-x="1000" />

<glyph glyph-name="map2" unicode="&#xe89a;" d="M967 388l0 0c0 0 0 0 0 0-1 1-1 1-2 1 0 0 0 0 0 1 0 0-1 0-1 0 0 0 0 0 0 1 0 0 0 0 0 0-1 0-1 0-1 0 0 0-1 0-1 0 0 1 0 1-1 1 0 0 0 0 0 0 0 0-1 0-1 1l-120 58v183c0 1 0 1 0 2 0 0 0 0 0 0 0 1 0 2 0 2 0 0 0 0 0 0 0 1 0 2 0 2 0 0 0 0 0 0 0 1 0 1-1 2 0 0 0 0 0 0 0 1 0 1 0 2 0 1-1 1-1 2 0 0 0 0 0 0 0 1 0 1 0 1 0 1-1 1-1 1 0 0 0 1 0 1l-68 136c-2 3-4 6-6 8-5 6-12 10-20 11-1 0-3 0-5 0h0-136 0c0 0-1 0-1 0 0 0 0 0-1 0 0 0 0 0-1 0 0 0 0 0-1 0 0 0 0 0 0 0 0 0 0 0 0 0-1 0-2 0-3-1 0 0 0 0 0 0-1 0-1 0-1 0 0 0 0 0 0 0-1 0-2 0-2 0 0-1-1-1-1-1 0 0 0 0 0 0-1 0-1 0-1 0 0 0 0 0-1 0 0-1-1-1-1-1 0 0 0 0-1 0 0 0 0-1 0-1 0 0-1 0-1 0 0 0 0 0-1 0 0-1 0-1 0-1-1 0-1 0-1 0 0-1-1-1-1-1 0 0 0 0-1 0 0 0 0 0 0-1 0 0-1 0-1 0-1-1-2-2-3-3l-50-50-47 22-70 35c-1 1-3 1-5 2-3 1-7 1-10 1h0-68 0c-1 0-1 0-2 0 0 0-1 0-1 0-8-1-15-4-20-9-1-1-1-1-2-2-1-1-3-3-4-5-5-8-6-18-4-27 1-2 2-4 3-6l43-87h-67l-58 58c-6 7-15 10-24 10s-17-3-24-10l-136-136c-6-6-10-15-10-24v-58-10-105c0-7 3-15 9-20l42-43-48-97c-2-4-3-9-3-13v-57c0-10 5-20 14-25 4-3 10-4 15-4 4 0 9 1 13 3l73 36v-56l-25-24-24-25c-11-11-11-29 0-40l114-115c2-2 4-3 6-4 5-3 9-4 14-4h58c11 0 20 6 25 16l42 83 8 15h154c10 0 20 7 25 16l57 115c1 1 2 3 2 5 1 2 1 5 1 7v0 8l4 4 11 11 114-57 0 0c0 0 1 0 1 0 0-1 1-1 1-1 0 0 0 0 0 0 1 0 2 0 2-1 4-1 8-2 11-2h0c0 0 0 0 0 0 7 0 14 2 19 6l206 136c2 1 4 2 5 4 0 0 1 0 1 1 1 0 1 1 1 1 6 6 9 14 9 22v68c0 10-5 20-12 26z m-122-7l-211-140-20 10-25 38 190 126v-2l34-17 32-15z m-312-9l-4 28 250 165v-77l-225-148-21 32z m-28 237l-3 29-25 16-10 7 38 25 35-17 0 0 0 0 31 31 21 22 22 21h94l-203-134 0 0z m241 85l29-58-254-167-8 71 233 154z m-356 49l52-26-32-20-22 14-16 32h18z m83-393h-198l-88-83-78-39-23-11 42 86 20 40-31 31-33 33v91 10 47l108 108 39-38 18-18h25 67 96l7-5 4-31h0l8-69h0l8-71h0l8-69 0 0 1-12 0 0z m444-41l-181-119-39 20 211 139 9-4v-36z" horiz-adv-x="1000" />

<glyph glyph-name="sbar" unicode="&#xe89b;" d="M333 190v-126h-190v126h190z m0 272v-235h-190v235h190z m0 98v-62h-190v62h190z m738-567v-72h-1142v858h71v-786h1071z m-142 152v-81h-190v81h190z m0 225v-193h-190v193h190z m0 125v-94h-190v94h190z m-298-206v-225h-190v225h190z m0 308v-273h-190v273h190z m0 182v-138h-190v138h190z" horiz-adv-x="1000" />

<glyph glyph-name="log-in" unicode="&#xe89c;" d="M688 350c0 18-7 33-19 44l-187 188c-11 11-27 18-44 18-35 0-63-28-63-62 0-18 7-34 18-45l81-80h-411c-35 0-63-29-63-63 0-34 28-62 63-62h411l-80-81c-12-11-19-27-19-44 0-35 28-63 63-63 17 0 33 7 44 18l187 188c12 11 19 27 19 44z m250 500h-375c-35 0-63-28-63-62 0-35 28-63 63-63h312v-750h-312c-35 0-63-28-63-63 0-34 28-62 63-62h375c34 0 62 28 62 62v876c0 34-28 62-62 62z" horiz-adv-x="1000" />

<glyph glyph-name="log-out" unicode="&#xe89d;" d="M438-25h-313v750h313c34 0 62 28 62 63s-28 62-62 62h-375c-35 0-63-28-63-62v-876c0-34 28-62 63-62h375c34 0 62 28 62 62s-28 63-62 63z m544 419l-188 188c-11 11-26 18-44 18-34 0-62-28-62-62 0-18 6-34 18-45l81-80h-412c-34 0-62-29-62-63s28-62 62-62h412l-81-81c-12-11-18-27-18-44 0-35 28-63 62-63 18 0 33 7 44 18l188 188c11 11 18 27 18 44 0 18-7 33-18 44z" horiz-adv-x="1000" />

<glyph glyph-name="filter" unicode="&#xe89e;" d="M900 800h-800c-27 0-50-22-50-50 0-14 6-26 15-35l285-285v-480c0-28 23-50 50-50 14 0 27 5 36 14l200 201c9 9 14 21 14 35v280l286 285c9 9 14 21 14 35 0 28-22 50-50 50z" horiz-adv-x="1000" />

<glyph glyph-name="sort-desc" unicode="&#xe89f;" d="M313 100c-18 0-34-7-45-18l-18-19v225c0 34-28 62-62 62s-63-28-63-62v-225l-18 18c-11 12-27 19-44 19-35 0-63-28-63-62 0-18 7-34 18-45l125-125c11-11 27-18 45-18s33 7 44 18l125 125c11 11 18 27 18 45 0 34-28 62-62 62z m250-62h-63c-34 0-62-29-62-63 0-34 28-63 62-63h63c34 0 62 29 62 63 0 34-28 63-62 63z m250 500h-313c-34 0-62-29-62-63 0-34 28-62 62-62h313c34 0 62 28 62 62 0 34-28 63-62 63z m-125-250h-188c-34 0-62-29-62-63 0-34 28-62 62-62h188c34 0 62 28 62 62 0 34-28 63-62 63z m250 500h-438c-34 0-62-29-62-63 0-34 28-62 62-62h438c34 0 62 28 62 62 0 34-28 63-62 63z" horiz-adv-x="1000" />

<glyph glyph-name="sort-asc" unicode="&#xe8a1;" d="M500 413h188c34 0 62 28 62 62 0 34-28 63-62 63h-188c-34 0-62-29-62-63 0-34 28-62 62-62z m0 250h63c34 0 62 28 62 62 0 34-28 63-62 63h-63c-34 0-62-29-62-63 0-34 28-62 62-62z m0-500h313c34 0 62 28 62 62 0 34-28 63-62 63h-313c-34 0-62-29-62-63 0-34 28-62 62-62z m-187-63c-18 0-34-7-45-18l-18-19v225c0 34-28 62-62 62s-63-28-63-62v-225l-18 18c-11 12-27 19-44 19-35 0-63-28-63-62 0-18 7-34 18-45l125-125c11-11 27-18 45-18s33 7 44 18l125 125c11 11 18 27 18 45 0 34-28 62-62 62z m625-62h-438c-34 0-62-29-62-63 0-34 28-63 62-63h438c34 0 62 29 62 63 0 34-28 63-62 63z" horiz-adv-x="1000" />

<glyph glyph-name="row-layout" unicode="&#xe8a2;" d="M938 788h-875c-38 0-63-32-63-63v-750c0-38 25-63 63-63h875c37 0 62 25 62 63v750c0 31-25 63-62 63l0 0z m-63-750h-750v125h750v-125l0 0z m0 187h-750v125h750v-125l0 0z m0 188h-750v125h750v-125l0 0z" horiz-adv-x="1000" />

<glyph glyph-name="column-layout" unicode="&#xe8a3;" d="M938 788h-875c-35 0-63-29-63-63v-750c0-34 28-63 63-63h875c34 0 62 29 62 63v750c0 34-28 63-62 63z m-688-750h-125v625h125v-625z m188 0h-125v625h125v-625z m437 0h-375v625h375v-625z" horiz-adv-x="1000" />

<glyph glyph-name="api" unicode="&#xe8a4;" d="M950 800h-900c-30 0-50-25-50-50v-800c0-25 20-50 50-50h900c25 0 50 25 50 50v800c0 25-25 50-50 50z m-20-830h-860v590h860v-590z m-800 150l145 310 5 5h5c5 0 5 0 5-5l145-310c0-5 0-15-5-15h-55c-5 0-15 0-20 15l-20 40h-125l-20-40c0-5-5-15-20-15h-35c-5 0-15 10-5 15z m185 100l-40 75 0 0-30-75h70z m165 200c0 5 5 5 5 5h115c55 0 100-45 100-100 0-55-45-100-100-100h-50v-105c0-5-5-5-5-5h-60c-5 0-5 5-5 5v300z m115-130c20 0 40 15 40 40 0 20-20 30-40 30h-45v-70h45z m155 130c0 5 5 5 5 5h55c5 0 5-5 5-5v-305c0-5-5-5-5-5h-55c-5 0-5 5-5 5v305z" horiz-adv-x="1000" />

<glyph glyph-name="small-cross" unicode="&#xe8a5;" d="M571 350l164 165c10 9 15 21 15 35 0 28-22 50-50 50-14 0-26-5-35-14l-165-165-164 165c-9 9-22 14-36 14-27 0-50-22-50-50 0-14 6-26 15-35l165-165-165-164c-9-9-15-22-15-36 0-27 23-50 50-50 14 0 27 6 36 15l164 165 165-165c9-9 21-15 35-15 28 0 50 23 50 50 0 14-5 27-14 36l-165 164z" horiz-adv-x="1000" />

<glyph glyph-name="data-view" unicode="&#xe8a6;" d="M750 650h-500c-25 0-50-25-50-50v-500c0-25 25-50 50-50h500c25 0 50 25 50 50v500c0 25-25 50-50 50z m-15-480c0-30-25-50-50-50h-150c-30 0-50 20-50 50v150c0 25 20 50 50 50h150c25 0 50-25 50-50v-150z" horiz-adv-x="1000" />

<glyph glyph-name="data-structure" unicode="&#xe8a7;" d="M750 650h-500c-27 0-50-23-50-50v-500c0-28 23-50 50-50h500c28 0 50 22 50 50v500c0 28-22 50-50 50z" horiz-adv-x="1000" />

<glyph glyph-name="concept" unicode="&#xe8a8;" d="M200 80c0-15 15-30 30-30h240v270h-270v-240z m0 540v-240h270v270h-240c-15 0-30-15-30-30z m570 30h-240v-270h270v240c0 15-15 30-30 30z m-240-600h240c15 0 30 15 30 30v240h-270v-270z" horiz-adv-x="1000" />

<glyph glyph-name="timeline2" unicode="&#xe8a9;" d="M1071-7v-72h-1142v858h71v-786h1071z m-982 146l-42 49 259 221 42-50-259-220z m0 270l-42 49 259 220 42-49-259-220z m168-41l50 41 207-254-50-41-207 254z m0 270l50 41 442-543-50-41-442 543z m207-524l-42 50 573 477 42-50-573-477z m235-18l-42 50 335 278 41-49-334-279z" horiz-adv-x="1000" />

<glyph glyph-name="scatter2" unicode="&#xe8aa;" d="M804 506c0 49 40 89 89 89 49 0 89-40 89-89s-40-89-89-89c-49 0-89 40-89 89z m267-513v-72h-1142v858h71v-786h1071z m-743 653c0 49 40 89 90 89 49 0 89-40 89-89s-40-89-89-89c-50 0-90 40-90 89z m-202-424c0 50 40 89 89 89 49 0 89-39 89-89s-40-89-89-89c-49 0-89 40-89 89z m454 116c0 49 40 89 89 89 49 0 89-40 89-89s-40-89-89-89c-49 0-89 40-89 89z" horiz-adv-x="1000" />

<glyph glyph-name="vsymbol2" unicode="&#xe8ab;" d="M875 55c50 0 89 40 89 89 0 49-39 89-89 89-49 0-89-40-89-89 0-49 40-89 89-89z m0 162c41 0 73-32 73-73 0-40-32-73-73-73-40 0-73 33-73 73 0 41 33 73 73 73z m-89 458c0 49 40 89 89 89 50 0 89-40 89-89s-39-89-89-89c-49 0-89 40-89 89z m285-682v-72h-1142v858h71v-786h1071z m-180 261h-30v304h30v-304z m-448 114c49 0 89 40 89 89 0 49-40 89-89 89-50 0-89-40-89-89 0-49 39-89 89-89z m0 162c40 0 73-33 73-73 0-40-33-73-73-73-41 0-73 33-73 73 0 40 32 73 73 73z m-89 206c0 50 39 89 89 89 49 0 89-39 89-89s-40-89-89-89c-50 0-89 40-89 89z m105-161h-31v42h31v-42z m-244-459c49 0 89 40 89 89 0 49-40 89-89 89-49 0-89-40-89-89 0-49 40-89 89-89z m0 162c40 0 73-32 73-73 0-40-33-73-73-73-40 0-73 33-73 73 0 41 33 73 73 73z m-89 257c0 49 40 89 89 89 49 0 89-40 89-89s-40-89-89-89c-49 0-89 40-89 89z m105-220h-30v101h30v-101z m438 159c49 0 89 40 89 89 0 49-40 89-89 89-49 0-89-40-89-89 0-49 40-89 89-89z m0 162c40 0 73-33 73-73 0-40-33-73-73-73-40 0-73 33-73 73 0 40 33 73 73 73z m-89-357c0 49 40 89 89 89 49 0 89-40 89-89s-40-89-89-89c-49 0-89 39-89 89z m105 117h-30v49h30v-49z" horiz-adv-x="1000" />

<glyph glyph-name="hsymbol2" unicode="&#xe8ac;" d="M112 202c0-49 40-89 89-89 49 0 89 40 89 89 0 49-40 89-89 89-49 0-89-40-89-89z m162 0c0-40-33-73-73-73-41 0-73 33-73 73 0 40 32 73 73 73 40 0 73-33 73-73z m457 89c49 0 89-40 89-89 0-49-40-89-89-89s-89 40-89 89c0 49 40 89 89 89z m340-298v-72h-1142v858h71v-786h1071z m-761 193v30h304v-30h-304z m96 219c0-49 40-89 89-89 50 0 90 40 90 89 0 49-40 89-90 89-49 0-89-40-89-89z m163 0c0-40-33-73-74-73-40 0-73 33-73 73 0 41 33 73 73 73 41 0 74-32 74-73z m336 89c50 0 89-40 89-89 0-49-39-89-89-89s-89 40-89 89c0 49 40 89 89 89z m-300-105v30h181v-30h-181z m-399 244c0-49 40-89 89-89 49 0 89 40 89 89 0 49-40 89-89 89-49 0-89-40-89-89z m162 0c0-40-33-73-73-73-40 0-73 33-73 73 0 40 33 73 73 73 40 0 73-33 73-73z m257 89c49 0 89-40 89-89 0-49-40-89-89-89s-89 40-89 89c0 49 39 89 89 89z m-221-105v30h102v-30h-102z" horiz-adv-x="1000" />

<glyph glyph-name="row" unicode="&#xe8ad;" d="M714 493h-572v143h572v-143z m357-500v-72h-1142v858h71v-786h1071z m-500 286h-429v142h429v-142z m214-215h-643v143h643v-143z" horiz-adv-x="1000" />

<glyph glyph-name="bar" unicode="&#xe8ae;" d="M286 350v-286h-143v286h143z m214 286v-572h-143v572h143z m571-643v-72h-1142v858h71v-786h1071z m-357 500v-429h-143v429h143z m215 214v-643h-143v643h143z" horiz-adv-x="1000" />

<glyph glyph-name="table" unicode="&#xe8af;" d="M938 788h-875c-38 0-63-32-63-63v-750c0-38 25-63 63-63h875c37 0 62 25 62 63v750c0 31-25 63-62 63l0 0z m-563-750h-250v125h250v-125l0 0z m0 187h-250v125h250v-125l0 0z m0 188h-250v125h250v-125l0 0z m500-375h-437v125h437v-125l0 0z m0 187h-437v125h437v-125l0 0z m0 188h-437v125h437v-125l0 0z" horiz-adv-x="1000" />
</font>
</defs>
</svg>