<?xml version="1.0" standalone="no"?>
<!DOCTYPE svg PUBLIC "-//W3C//DTD SVG 1.1//EN" "http://www.w3.org/Graphics/SVG/1.1/DTD/svg11.dtd">
<svg xmlns="http://www.w3.org/2000/svg">
<metadata>Copyright (C) 2019 by original authors @ fontello.com</metadata>
<defs>
<font id="fontello" horiz-adv-x="1000" >
<font-face font-family="fontello" font-weight="400" font-stretch="normal" units-per-em="1000" ascent="850" descent="-150" />
<missing-glyph horiz-adv-x="1000" />
<glyph glyph-name="row" unicode="&#xe800;" d="M714 493h-572v143h572v-143z m357-500v-72h-1142v858h71v-786h1071z m-500 286h-429v142h429v-142z m214-215h-643v143h643v-143z" horiz-adv-x="1000" />

<glyph glyph-name="hsymbol2" unicode="&#xe801;" d="M112 202c0-49 40-89 89-89 49 0 89 40 89 89 0 49-40 89-89 89-49 0-89-40-89-89z m162 0c0-40-33-73-73-73-41 0-73 33-73 73 0 40 32 73 73 73 40 0 73-33 73-73z m457 89c49 0 89-40 89-89 0-49-40-89-89-89s-89 40-89 89c0 49 40 89 89 89z m340-298v-72h-1142v858h71v-786h1071z m-761 193v30h304v-30h-304z m96 219c0-49 40-89 89-89 50 0 90 40 90 89 0 49-40 89-90 89-49 0-89-40-89-89z m163 0c0-40-33-73-74-73-40 0-73 33-73 73 0 41 33 73 73 73 41 0 74-32 74-73z m336 89c50 0 89-40 89-89 0-49-39-89-89-89s-89 40-89 89c0 49 40 89 89 89z m-300-105v30h181v-30h-181z m-399 244c0-49 40-89 89-89 49 0 89 40 89 89 0 49-40 89-89 89-49 0-89-40-89-89z m162 0c0-40-33-73-73-73-40 0-73 33-73 73 0 40 33 73 73 73 40 0 73-33 73-73z m257 89c49 0 89-40 89-89 0-49-40-89-89-89s-89 40-89 89c0 49 39 89 89 89z m-221-105v30h102v-30h-102z" horiz-adv-x="1000" />

<glyph glyph-name="vsymbol2" unicode="&#xe802;" d="M875 55c50 0 89 40 89 89 0 49-39 89-89 89-49 0-89-40-89-89 0-49 40-89 89-89z m0 162c41 0 73-32 73-73 0-40-32-73-73-73-40 0-73 33-73 73 0 41 33 73 73 73z m-89 458c0 49 40 89 89 89 50 0 89-40 89-89s-39-89-89-89c-49 0-89 40-89 89z m285-682v-72h-1142v858h71v-786h1071z m-180 261h-30v304h30v-304z m-448 114c49 0 89 40 89 89 0 49-40 89-89 89-50 0-89-40-89-89 0-49 39-89 89-89z m0 162c40 0 73-33 73-73 0-40-33-73-73-73-41 0-73 33-73 73 0 40 32 73 73 73z m-89 206c0 50 39 89 89 89 49 0 89-39 89-89s-40-89-89-89c-50 0-89 40-89 89z m105-161h-31v42h31v-42z m-244-459c49 0 89 40 89 89 0 49-40 89-89 89-49 0-89-40-89-89 0-49 40-89 89-89z m0 162c40 0 73-32 73-73 0-40-33-73-73-73-40 0-73 33-73 73 0 41 33 73 73 73z m-89 257c0 49 40 89 89 89 49 0 89-40 89-89s-40-89-89-89c-49 0-89 40-89 89z m105-220h-30v101h30v-101z m438 159c49 0 89 40 89 89 0 49-40 89-89 89-49 0-89-40-89-89 0-49 40-89 89-89z m0 162c40 0 73-33 73-73 0-40-33-73-73-73-40 0-73 33-73 73 0 40 33 73 73 73z m-89-357c0 49 40 89 89 89 49 0 89-40 89-89s-40-89-89-89c-49 0-89 39-89 89z m105 117h-30v49h30v-49z" horiz-adv-x="1000" />

<glyph glyph-name="scatter2" unicode="&#xe803;" d="M804 506c0 49 40 89 89 89 49 0 89-40 89-89s-40-89-89-89c-49 0-89 40-89 89z m267-513v-72h-1142v858h71v-786h1071z m-743 653c0 49 40 89 90 89 49 0 89-40 89-89s-40-89-89-89c-50 0-90 40-90 89z m-202-424c0 50 40 89 89 89 49 0 89-39 89-89s-40-89-89-89c-49 0-89 40-89 89z m454 116c0 49 40 89 89 89 49 0 89-40 89-89s-40-89-89-89c-49 0-89 40-89 89z" horiz-adv-x="1000" />

<glyph glyph-name="fullscreen" unicode="&#xe804;" d="M300 750c30 0 50 25 50 50s-20 50-50 50h-250c-30 0-50-25-50-50v-250c0-30 20-50 50-50s50 20 50 50v200h200z m-200-600c0 30-25 50-50 50s-50-20-50-50v-250c0-25 20-50 50-50h250c30 0 50 25 50 50s-20 50-50 50h-200v200z m850 700h-250c-30 0-50-20-50-50s20-50 50-50h200v-200c0-30 25-50 50-50s50 20 50 50v250c0 25-25 50-50 50z m0-650c-25 0-50-20-50-50v-200h-200c-30 0-50-25-50-50s20-50 50-50h250c25 0 50 25 50 50v250c0 25-25 50-50 50z" horiz-adv-x="1000" />

<glyph glyph-name="fullscreen-exit" unicode="&#xe805;" d="M50 600c-30 0-50-25-50-50 0-25 20-50 50-50h250c30 0 50 25 50 50v250c0 30-20 50-50 50s-50-20-50-50v-200h-200z m200-700c0-30 25-50 50-50s50 20 50 50v250c0 25-20 50-50 50h-250c-30 0-50-25-50-50 0-25 20-50 50-50h200v-200z m450 600h250c30 0 50 20 50 50s-20 50-50 50h-200v200c0 30-25 50-50 50-25 0-50-20-50-50v-250c0-25 25-50 50-50z m0-650c25 0 50 20 50 50v200h200c30 0 50 25 50 50s-20 50-50 50h-250c-25 0-50-25-50-50v-250c0-25 25-50 50-50z" horiz-adv-x="1000" />

<glyph glyph-name="settings" unicode="&#xe806;" d="M950 650c25 0 50 25 50 50s-25 50-50 50h-200c-30 0-50-20-50-50v0c0-30 20-50 50-50h200z m-900 100c-25 0-50-25-50-50 0-25 25-50 50-50h250c30 0 50 20 50 50v0c0 30-20 50-50 50h-250z m900-450c25 0 50 20 50 50s-25 50-50 50h-350c-30 0-50-20-50-50v0c0-30 20-50 50-50h350z m0-350c25 0 50 25 50 50s-25 50-50 50h-100c-30 0-50-20-50-50v0c0-30 20-50 50-50h100z m-900 450c-25 0-50-20-50-50s25-50 50-50h100c30 0 50 20 50 50v0c0 30-20 50-50 50h-100z m700-400l0 0c0 55-45 100-100 100h-50c-55 0-100-45-100-100v0c0-55 45-100 100-100h50c55 0 100 45 100 100z m-700 50c-25 0-50-25-50-50 0-25 25-50 50-50h350c30 0 50 20 50 50v0c0 30-20 50-50 50h-350z m600 650l0 0c0 55-45 100-100 100h-50c-55 0-100-45-100-100v0c0-55 45-100 100-100h50c55 0 100 45 100 100z m-150-350l0 0c0 55-45 100-100 100h-50c-55 0-100-45-100-100v0c0-55 45-100 100-100h50c55 0 100 45 100 100z" horiz-adv-x="1000" />

<glyph glyph-name="import" unicode="&#xe807;" d="M465 65c9-9 21-15 35-15s27 6 36 15l250 250c9 9 14 21 14 35 0 28-22 50-50 50-14 0-26-5-35-14l-165-165v579c0 28-22 50-50 50s-50-22-50-50v-579l-164 165c-9 9-22 14-36 14-27 0-50-22-50-50 0-14 6-26 15-35l250-250z m485 85c-27 0-50-22-50-50v-150h-800v150c0 28-22 50-50 50s-50-22-50-50v-200c0-28 23-50 50-50h900c28 0 50 22 50 50v200c0 28-22 50-50 50z" horiz-adv-x="1000" />

<glyph glyph-name="share-variant" unicode="&#xe808;" d="M750 180c-32 0-60-12-82-32l-297 173c2 9 4 19 4 29 0 10-2 20-4 29l294 171c23-20 52-33 85-33a125 125 0 0 1 125 125 125 125 0 0 1-125 125 125 125 0 0 1-125-125c0-10 2-20 4-29l-294-172c-22 21-52 34-85 34a125 125 0 0 1-125-125 125 125 0 0 1 125-125c33 0 63 13 85 34l297-173c-2-9-4-18-4-28 0-67 55-121 122-121 67 0 122 54 122 121a122 122 0 0 1-122 122z" horiz-adv-x="1000" />

<glyph glyph-name="api" unicode="&#xe809;" d="M950 800h-900c-30 0-50-25-50-50v-800c0-25 20-50 50-50h900c25 0 50 25 50 50v800c0 25-25 50-50 50z m-20-830h-860v590h860v-590z m-800 150l145 310 5 5h5c5 0 5 0 5-5l145-310c0-5 0-15-5-15h-55c-5 0-15 0-20 15l-20 40h-125l-20-40c0-5-5-15-20-15h-35c-5 0-15 10-5 15z m185 100l-40 75 0 0-30-75h70z m165 200c0 5 5 5 5 5h115c55 0 100-45 100-100 0-55-45-100-100-100h-50v-105c0-5-5-5-5-5h-60c-5 0-5 5-5 5v300z m115-130c20 0 40 15 40 40 0 20-20 30-40 30h-45v-70h45z m155 130c0 5 5 5 5 5h55c5 0 5-5 5-5v-305c0-5-5-5-5-5h-55c-5 0-5 5-5 5v305z" horiz-adv-x="1000" />

<glyph glyph-name="data-view" unicode="&#xe80a;" d="M750 650h-500c-25 0-50-25-50-50v-500c0-25 25-50 50-50h500c25 0 50 25 50 50v500c0 25-25 50-50 50z m-15-480c0-30-25-50-50-50h-150c-30 0-50 20-50 50v150c0 25 20 50 50 50h150c25 0 50-25 50-50v-150z" horiz-adv-x="1000" />

<glyph glyph-name="data-structure" unicode="&#xe80b;" d="M750 650h-500c-27 0-50-23-50-50v-500c0-28 23-50 50-50h500c28 0 50 22 50 50v500c0 28-22 50-50 50z" horiz-adv-x="1000" />

<glyph glyph-name="concept" unicode="&#xe80c;" d="M200 80c0-15 15-30 30-30h240v270h-270v-240z m0 540v-240h270v270h-240c-15 0-30-15-30-30z m570 30h-240v-270h270v240c0 15-15 30-30 30z m-240-600h240c15 0 30 15 30 30v240h-270v-270z" horiz-adv-x="1000" />

<glyph glyph-name="bar" unicode="&#xe80e;" d="M286 350v-286h-143v286h143z m214 286v-572h-143v572h143z m571-643v-72h-1142v858h71v-786h1071z m-357 500v-429h-143v429h143z m215 214v-643h-143v643h143z" horiz-adv-x="1000" />

<glyph glyph-name="level1" unicode="&#xe80f;" d="M500 745c106 0 205-41 280-115 74-75 115-174 115-280s-41-205-115-279c-75-75-174-116-280-116s-205 41-279 116c-75 74-116 174-116 279s41 205 116 280 174 115 279 115m0 88c-267 0-483-216-483-483s216-483 483-483 483 216 483 483-216 483-483 483l0 0z m-49-391h-78c-9 0-15 8-15 16v51c0 3 2 10 5 12l119 93h75c8 0 15-7 15-15v-523c0-9-7-16-15-16h-91c-9 0-15 7-15 16v366z" horiz-adv-x="1000" />

<glyph glyph-name="level2" unicode="&#xe810;" d="M500 745c106 0 205-41 280-115 74-75 115-174 115-280s-41-205-115-279c-75-75-174-116-280-116s-205 41-279 116c-75 74-116 174-116 279s41 205 116 280 174 115 279 115m0 88c-267 0-483-216-483-483s216-483 483-483 483 216 483 483-216 483-483 483l0 0z m-191-721c48 62 168 226 216 299 11 16 22 39 22 62 0 31-26 59-72 59-34 0-64-24-79-41-7-7-16-7-23 0l-50 50c-5 5-6 15 0 22 0 0 66 79 163 79 116 0 185-74 185-164 0-44-13-68-32-106-26-47-93-134-131-188h143c8 0 16-7 16-15v-74c0-8-8-15-16-15h-326c-9 0-16 7-16 15v17z" horiz-adv-x="1000" />

<glyph glyph-name="level3" unicode="&#xe811;" d="M500 745c106 0 205-41 280-115 74-75 115-174 115-280s-41-205-115-279c-75-75-174-116-280-116s-205 41-279 116c-75 74-116 174-116 279s41 205 116 280 174 115 279 115m0 88c-267 0-483-216-483-483s216-483 483-483 483 216 483 483-216 483-483 483l0 0z m-180-671l51 52c6 5 14 6 20 1 0 0 51-37 90-37 35 0 71 29 71 65 0 36-37 66-97 66h-46c-8 0-15 7-15 16v67c0 9 7 16 15 16h46c57 0 87 28 87 63 0 35-30 61-65 61-36 0-59-19-71-33-6-6-15-6-22 0l-50 49c-6 5-5 15 0 21 0 0 67 72 156 72 95 0 176-58 176-150 0-62-47-109-84-126v-2c38-17 99-67 99-137 0-89-78-156-190-156-103 0-155 50-172 72-5 6-4 15 1 20z" horiz-adv-x="1000" />

<glyph glyph-name="level4" unicode="&#xe812;" d="M500 745c106 0 205-41 280-115 74-75 115-174 115-280s-41-205-115-279c-75-75-174-116-280-116s-205 41-279 116c-75 74-116 174-116 279s41 205 116 280 174 115 279 115m0 88c-267 0-483-216-483-483s216-483 483-483 483 216 483 483-216 483-483 483l0 0z m-260-620v87l284 341c2 2 5 5 12 5h59c8 0 15-7 15-16l1-334h65c9 0 15-6 15-15v-67c0-9-6-16-15-16h-65l1-100c0-8-7-16-16-16h-87c-8 0-15 8-15 16v100h-239c-9 0-15 7-15 15z m257 86v151l-129-151h129z" horiz-adv-x="1000" />

<glyph glyph-name="level5" unicode="&#xe813;" d="M500 745c106 0 205-41 280-115 74-75 115-174 115-280s-41-205-115-279c-75-75-174-116-280-116s-205 41-279 116c-75 74-116 174-116 279s41 205 116 280 174 115 279 115m0 88c-267 0-483-216-483-483s216-483 483-483 483 216 483 483-216 483-483 483l0 0z m-169-676l51 51c5 5 13 6 20 2 0 0 58-39 97-39 44 0 77 33 77 78 0 44-31 79-84 79h-125c-16 0-25 15-25 28v253c0 8 6 15 15 15h263c9 0 15-7 15-15v-72c0-8-6-15-15-15h-168v-88h57c113 0 186-79 186-185 0-102-87-187-201-187-85 0-141 43-161 68-11 12-12 18-2 27z" horiz-adv-x="1000" />

<glyph glyph-name="level6" unicode="&#xe814;" d="M500 745c106 0 205-41 280-115 74-75 115-174 115-280s-41-205-115-279c-75-75-174-116-280-116s-205 41-279 116c-75 74-116 174-116 279s41 205 116 280 174 115 279 115m0 88c-267 0-483-216-483-483s216-483 483-483 483 216 483 483-216 483-483 483l0 0z m67-181c13 4 22-1 26-13l23-62c4-10 1-19-15-24-38-12-147-50-164-134 21 9 56 16 78 16 76 0 162-56 162-176 0-103-85-187-187-187-126 0-196 94-196 222 0 239 203 336 273 358z m-79-467c44 0 79 35 79 78 0 43-35 79-79 79s-78-36-78-79c0-43 35-78 78-78z" horiz-adv-x="1000" />

<glyph glyph-name="level7" unicode="&#xe815;" d="M500 745c106 0 205-41 280-115 74-75 115-174 115-280s-41-205-115-279c-75-75-174-116-280-116s-205 41-279 116c-75 74-116 174-116 279s41 205 116 280 174 115 279 115m0 88c-267 0-483-216-483-483s216-483 483-483 483 216 483 483-216 483-483 483l0 0z m-159-751l204 426h-189c-8 0-15 7-15 15v73c0 9 7 16 15 16h344c8 0 16-7 16-16v-5l-244-510c-10-20-21-24-34-24h-80c-9 0-17 7-17 16v9z" horiz-adv-x="1000" />

<glyph glyph-name="level8" unicode="&#xe816;" d="M500 745c106 0 205-41 280-115 74-75 115-174 115-280s-41-205-115-279c-75-75-174-116-280-116s-205 41-279 116c-75 74-116 174-116 279s41 205 116 280 174 115 279 115m0 88c-267 0-483-216-483-483s216-483 483-483 483 216 483 483-216 483-483 483l0 0z m-104-471v3c-32 18-84 62-84 126 0 91 82 149 181 149 104 0 185-58 185-149 0-62-52-105-84-126v-3c37-20 100-67 100-137 0-89-79-156-201-156-118 0-196 67-196 156 0 72 84 128 99 137z m100-192c32 0 66 26 66 61 0 30-23 60-67 75-43-15-66-45-66-75 0-36 33-61 67-61z m57 316c0 28-27 53-58 53-30 0-57-25-57-53 0-29 19-53 57-68 38 14 58 40 58 68z" horiz-adv-x="1000" />

<glyph glyph-name="level9" unicode="&#xe817;" d="M500 745c106 0 205-41 280-115 74-75 115-174 115-280s-41-205-115-279c-75-75-174-116-280-116s-205 41-279 116c-75 74-116 174-116 279s41 205 116 280 174 115 279 115m0 88c-267 0-483-216-483-483s216-483 483-483 483 216 483 483-216 483-483 483l0 0z m-106-681c38 12 147 49 164 133-21-9-56-16-78-16-76 0-162 56-162 177 0 103 85 187 187 187 126 0 196-95 196-222 0-240-198-337-273-359-13-3-22 2-26 13l-23 63c-4 10-1 19 15 24z m191 290c0 42-35 78-78 78-44 0-79-36-79-78 0-44 35-79 79-79 43 0 78 36 78 79z" horiz-adv-x="1000" />

<glyph glyph-name="timeline2" unicode="&#xe818;" d="M1071-7v-72h-1142v858h71v-786h1071z m-982 146l-42 49 259 221 42-50-259-220z m0 270l-42 49 259 220 42-49-259-220z m168-41l50 41 207-254-50-41-207 254z m0 270l50 41 442-543-50-41-442 543z m207-524l-42 50 573 477 42-50-573-477z m235-18l-42 50 335 278 41-49-334-279z" horiz-adv-x="1000" />

<glyph glyph-name="sort-name-up" unicode="&#xf15d;" d="M665 622h98l-40 122-6 26q-2 9-2 11h-2l-1-11q0 0-2-10t-5-16z m-254-576q0-6-6-13l-178-178q-5-5-13-5-6 0-12 5l-179 179q-8 9-4 19 4 11 17 11h107v768q0 8 5 13t13 5h107q8 0 13-5t5-13v-768h107q8 0 13-5t5-13z m466-66v-130h-326v50l206 295q7 11 12 16l6 5v1q-1 0-3 0t-5 0q-6-2-16-2h-130v-64h-67v128h317v-50l-206-296q-4-4-12-14l-6-7v-1l8 1q5 2 16 2h139v66h67z m50 501v-60h-161v60h42l-26 80h-136l-26-80h42v-60h-160v60h39l128 369h91l128-369h39z" horiz-adv-x="928.6" />

<glyph glyph-name="sort-name-down" unicode="&#xf15e;" d="M665 51h98l-40 122-6 26q-2 9-2 11h-2l-1-11q0-1-2-10t-5-16z m-254-5q0-6-6-13l-178-178q-5-5-13-5-6 0-12 5l-179 179q-8 9-4 19 4 11 17 11h107v768q0 8 5 13t13 5h107q8 0 13-5t5-13v-768h107q8 0 13-5t5-13z m516-137v-59h-161v59h42l-26 80h-136l-26-80h42v-59h-160v59h39l128 370h91l128-370h39z m-50 643v-131h-326v51l206 295q7 10 12 15l6 5v2q-1 0-3-1t-5 0q-6-2-16-2h-130v-64h-67v128h317v-50l-206-295q-4-5-12-15l-6-5v-2l8 2q5 0 16 0h139v67h67z" horiz-adv-x="928.6" />

<glyph glyph-name="sort-alt-up" unicode="&#xf160;" d="M411 46q0-6-6-13l-178-178q-5-5-13-5-6 0-12 5l-179 179q-8 9-4 19 4 11 17 11h107v768q0 8 5 13t13 5h107q8 0 13-5t5-13v-768h107q8 0 13-5t5-13z m589-71v-107q0-8-5-13t-13-5h-464q-8 0-13 5t-5 13v107q0 8 5 13t13 5h464q8 0 13-5t5-13z m-107 286v-107q0-8-5-13t-13-5h-357q-8 0-13 5t-5 13v107q0 8 5 13t13 5h357q8 0 13-5t5-13z m-107 285v-107q0-7-5-12t-13-6h-250q-8 0-13 6t-5 12v107q0 8 5 13t13 5h250q8 0 13-5t5-13z m-107 286v-107q0-8-5-13t-13-5h-143q-8 0-13 5t-5 13v107q0 8 5 13t13 5h143q8 0 13-5t5-13z" horiz-adv-x="1000" />

<glyph glyph-name="sort-alt-down" unicode="&#xf161;" d="M679-25v-107q0-8-5-13t-13-5h-143q-8 0-13 5t-5 13v107q0 8 5 13t13 5h143q8 0 13-5t5-13z m-268 71q0-6-6-13l-178-178q-5-5-13-5-6 0-12 5l-179 179q-8 9-4 19 4 11 17 11h107v768q0 8 5 13t13 5h107q8 0 13-5t5-13v-768h107q8 0 13-5t5-13z m375 215v-107q0-8-5-13t-13-5h-250q-8 0-13 5t-5 13v107q0 8 5 13t13 5h250q8 0 13-5t5-13z m107 285v-107q0-7-5-12t-13-6h-357q-8 0-13 6t-5 12v107q0 8 5 13t13 5h357q8 0 13-5t5-13z m107 286v-107q0-8-5-13t-13-5h-464q-8 0-13 5t-5 13v107q0 8 5 13t13 5h464q8 0 13-5t5-13z" horiz-adv-x="1000" />

<glyph glyph-name="sort-number-up" unicode="&#xf162;" d="M751 117q0 36-24 65t-58 30q-29 0-46-21t-17-52 20-53 58-22q28 0 48 15t19 38z m-340-71q0-6-6-13l-178-178q-5-5-13-5-6 0-12 5l-179 179q-8 9-4 19 4 11 17 11h107v768q0 8 5 13t13 5h107q8 0 13-5t5-13v-768h107q8 0 13-5t5-13z m418 39q0-35-7-68t-23-64-38-53-55-36-71-14q-35 0-60 9-14 4-24 8l22 63q9-4 17-6 21-7 42-7 47 0 75 33t37 81h-1q-11-13-34-21t-47-8q-59 0-97 40t-37 97q0 58 40 99t101 41q69 0 115-53t45-141z m-16 400v-64h-262v64h93v241q0 4 0 11t1 9v9h-2l-3-7q-5-7-15-17l-35-32-45 48 107 103h68v-365h93z" horiz-adv-x="857.1" />

<glyph glyph-name="sort-number-down" unicode="&#xf163;" d="M751 689q0 35-24 65t-58 29q-29 0-46-21t-17-52 20-53 58-21q28 0 48 15t19 38z m-340-643q0-6-6-13l-178-178q-5-5-13-5-6 0-12 5l-179 179q-8 9-4 19 4 11 17 11h107v768q0 8 5 13t13 5h107q8 0 13-5t5-13v-768h107q8 0 13-5t5-13z m402-132v-64h-262v64h93v241q0 4 0 10t1 10v9h-2l-3-7q-5-7-15-17l-35-33-45 48 107 104h68v-365h93z m16 742q0-34-7-67t-23-64-38-53-55-37-71-14q-35 0-60 9-14 5-24 9l22 63q9-4 17-6 21-8 42-8 47 0 75 33t37 81h-1q-11-13-34-20t-47-8q-59 0-97 40t-37 96q0 59 40 99t101 41q69 0 115-53t45-141z" horiz-adv-x="857.1" />
</font>
</defs>
</svg>